EESchema Schematic File Version 4
LIBS:Switching Regulator Schematic_Supercircuit-cache
EELAYER 29 0
EELAYER END
$Descr A4 11693 8268
encoding utf-8
Sheet 1 2
Title "UPS uHat for Raspberry Pi Zero"
Date "2021-06-04"
Rev "1.0"
Comp "Skye Zive"
Comment1 "This Schematic is licensed under MIT Open Source License."
Comment2 ""
Comment3 ""
Comment4 ""
$EndDescr
$Comp
L Connector_Generic:Conn_02x20_Odd_Even J1
U 1 1 5C77771F
P 3800 5200
F 0 "J1" H 3850 6317 50  0000 C CNN
F 1 "GPIO_CONNECTOR" H 3850 6226 50  0000 C CNN
F 2 "lib:PinSocket_2x20_P2.54mm_Vertical_Centered_Anchor" H 3800 5200 50  0001 C CNN
F 3 "~" H 3800 5200 50  0001 C CNN
	1    3800 5200
	1    0    0    -1  
$EndComp
$Comp
L power:GND #PWR0101
U 1 1 5C777805
P 3400 6350
F 0 "#PWR0101" H 3400 6100 50  0001 C CNN
F 1 "GND" H 3405 6177 50  0001 C CNN
F 2 "" H 3400 6350 50  0001 C CNN
F 3 "" H 3400 6350 50  0001 C CNN
	1    3400 6350
	1    0    0    -1  
$EndComp
$Comp
L power:GND #PWR0102
U 1 1 5C777838
P 4300 6350
F 0 "#PWR0102" H 4300 6100 50  0001 C CNN
F 1 "GND" H 4305 6177 50  0001 C CNN
F 2 "" H 4300 6350 50  0001 C CNN
F 3 "" H 4300 6350 50  0001 C CNN
	1    4300 6350
	1    0    0    -1  
$EndComp
Wire Wire Line
	3600 4700 3400 4700
Wire Wire Line
	3400 4700 3400 5500
Wire Wire Line
	3600 5500 3400 5500
Connection ~ 3400 5500
Wire Wire Line
	3400 5500 3400 6200
Wire Wire Line
	3600 6200 3400 6200
Connection ~ 3400 6200
Wire Wire Line
	3400 6200 3400 6350
Wire Wire Line
	4100 4500 4300 4500
Wire Wire Line
	4300 4500 4300 4900
Wire Wire Line
	4100 4900 4300 4900
Connection ~ 4300 4900
Wire Wire Line
	4300 4900 4300 5200
Wire Wire Line
	4100 5200 4300 5200
Connection ~ 4300 5200
Wire Wire Line
	4100 5700 4300 5700
Wire Wire Line
	4300 5200 4300 5700
Connection ~ 4300 5700
Wire Wire Line
	4300 5700 4300 5900
Wire Wire Line
	4100 5900 4300 5900
Connection ~ 4300 5900
Wire Wire Line
	4300 5900 4300 6350
$Comp
L power:+3.3V #PWR0103
U 1 1 5C777AB0
P 3350 4200
F 0 "#PWR0103" H 3350 4050 50  0001 C CNN
F 1 "+3.3V" H 3365 4373 50  0000 C CNN
F 2 "" H 3350 4200 50  0001 C CNN
F 3 "" H 3350 4200 50  0001 C CNN
	1    3350 4200
	1    0    0    -1  
$EndComp
Wire Wire Line
	3350 4300 3350 4200
Wire Wire Line
	3600 5100 3350 5100
Wire Wire Line
	3350 5100 3350 4300
Connection ~ 3350 4300
$Comp
L power:+5V #PWR0104
U 1 1 5C777E01
P 4400 4200
F 0 "#PWR0104" H 4400 4050 50  0001 C CNN
F 1 "+5V" H 4415 4373 50  0000 C CNN
F 2 "" H 4400 4200 50  0001 C CNN
F 3 "" H 4400 4200 50  0001 C CNN
	1    4400 4200
	1    0    0    -1  
$EndComp
Wire Wire Line
	4100 4300 4400 4300
Wire Wire Line
	4400 4300 4400 4200
Wire Wire Line
	4100 4400 4400 4400
Wire Wire Line
	4400 4400 4400 4300
Connection ~ 4400 4300
$Comp
L power:PWR_FLAG #FLG0101
U 1 1 5C77824A
P 2950 4200
F 0 "#FLG0101" H 2950 4275 50  0001 C CNN
F 1 "PWR_FLAG" H 2950 4374 50  0000 C CNN
F 2 "" H 2950 4200 50  0001 C CNN
F 3 "~" H 2950 4200 50  0001 C CNN
	1    2950 4200
	1    0    0    -1  
$EndComp
$Comp
L power:GND #PWR0105
U 1 1 5C778504
P 2650 400
F 0 "#PWR0105" H 2650 150 50  0001 C CNN
F 1 "GND" H 2655 227 50  0001 C CNN
F 2 "" H 2650 400 50  0001 C CNN
F 3 "" H 2650 400 50  0001 C CNN
	1    2650 400 
	1    0    0    -1  
$EndComp
$Comp
L power:PWR_FLAG #FLG0102
U 1 1 5C778511
P 3000 6400
F 0 "#FLG0102" H 3000 6475 50  0001 C CNN
F 1 "PWR_FLAG" H 3000 6574 50  0000 C CNN
F 2 "" H 3000 6400 50  0001 C CNN
F 3 "~" H 3000 6400 50  0001 C CNN
	1    3000 6400
	1    0    0    -1  
$EndComp
Wire Wire Line
	3000 6400 3000 6450
Text Notes 4950 4400 0    50   ~ 10
If back powering Pi with 5V \nNOTE that the Raspberry Pi 3B+ and Pi Zero \nand ZeroW do not include an input ZVD.
Wire Notes Line
	4900 4100 4900 4450
Wire Notes Line
	4900 4450 6750 4450
Wire Notes Line
	6750 4450 6750 4100
Wire Notes Line
	6750 4100 4900 4100
Wire Wire Line
	3350 4300 3600 4300
Wire Wire Line
	2950 4300 2950 4200
Wire Wire Line
	2950 4300 3350 4300
$Comp
L power:PWR_FLAG #FLG0103
U 1 1 5C77CEFA
P 4750 4200
F 0 "#FLG0103" H 4750 4275 50  0001 C CNN
F 1 "PWR_FLAG" H 4750 4374 50  0000 C CNN
F 2 "" H 4750 4200 50  0001 C CNN
F 3 "~" H 4750 4200 50  0001 C CNN
	1    4750 4200
	1    0    0    -1  
$EndComp
Wire Wire Line
	4400 4300 4750 4300
Wire Wire Line
	4750 4200 4750 4300
Text Label 2650 4400 0    50   ~ 0
GPIO2_SDA1
Text Label 2650 4500 0    50   ~ 0
GPIO3_SCL1
Text Label 2650 4600 0    50   ~ 0
GPIO4_GPIO_GCLK
Text Label 2650 4800 0    50   ~ 0
GPIO17_GEN0
Text Label 2650 4900 0    50   ~ 0
GPIO27_GEN2
Text Label 2650 5000 0    50   ~ 0
GPIO22_GEN3
Text Label 2650 5200 0    50   ~ 0
GPIO10_SPI_MOSI
Wire Wire Line
	2550 5200 3600 5200
Wire Wire Line
	2550 5300 3600 5300
Wire Wire Line
	2550 5400 3600 5400
Wire Wire Line
	2550 5600 3600 5600
Wire Wire Line
	2550 5700 3600 5700
Wire Wire Line
	2550 5800 3600 5800
Wire Wire Line
	2550 5900 3600 5900
Wire Wire Line
	2550 6000 3600 6000
Wire Wire Line
	2550 6100 3600 6100
Wire Wire Line
	2550 5000 3600 5000
Wire Wire Line
	2550 4900 3600 4900
Wire Wire Line
	2550 4800 3600 4800
Wire Wire Line
	2550 4600 3600 4600
Wire Wire Line
	2550 4500 3600 4500
Wire Wire Line
	2550 4400 3600 4400
Text Label 2650 5300 0    50   ~ 0
GPIO9_SPI_MISO
Text Label 2650 5400 0    50   ~ 0
GPIO11_SPI_SCLK
Text Label 2650 5600 0    50   ~ 0
ID_SD
Text Label 2650 5700 0    50   ~ 0
GPIO5
Text Label 2650 5800 0    50   ~ 0
GPIO6
Text Label 2650 5900 0    50   ~ 0
GPIO13
Text Label 2650 6000 0    50   ~ 0
GPIO19
Text Label 2650 6100 0    50   ~ 0
GPIO26
NoConn ~ 2550 4400
NoConn ~ 2550 4500
NoConn ~ 2550 4600
NoConn ~ 2550 4800
NoConn ~ 2550 4900
NoConn ~ 2550 5000
NoConn ~ 2550 5200
NoConn ~ 2550 5300
NoConn ~ 2550 5400
NoConn ~ 2550 5600
NoConn ~ 2550 5700
NoConn ~ 2550 5800
NoConn ~ 2550 5900
NoConn ~ 2550 6000
NoConn ~ 2550 6100
Text Label 4450 4600 0    50   ~ 0
GPIO14_TXD0
Text Label 4450 4700 0    50   ~ 0
GPIO15_RXD0
Text Label 4450 4800 0    50   ~ 0
GPIO18_GEN1
Text Label 4450 5000 0    50   ~ 0
GPIO23_GEN4
Text Label 4450 5100 0    50   ~ 0
GPIO24_GEN5
Text Label 4450 5300 0    50   ~ 0
GPIO25_GEN6
Text Label 4450 5400 0    50   ~ 0
GPIO8_SPI_CE0_N
Text Label 4450 5500 0    50   ~ 0
GPIO7_SPI_CE1_N
Wire Wire Line
	4100 5400 5150 5400
Wire Wire Line
	4100 5500 5150 5500
Text Label 4450 5600 0    50   ~ 0
ID_SC
Text Label 4450 5800 0    50   ~ 0
GPIO12
Text Label 4450 6000 0    50   ~ 0
GPIO16
Text Label 4450 6100 0    50   ~ 0
GPIO20
Text Label 4450 6200 0    50   ~ 0
GPIO21
Wire Wire Line
	4100 4600 5150 4600
Wire Wire Line
	4100 4700 5150 4700
Wire Wire Line
	4100 4800 5150 4800
Wire Wire Line
	4100 5000 5150 5000
Wire Wire Line
	4100 5100 5150 5100
Wire Wire Line
	4100 5300 5150 5300
Wire Wire Line
	4100 5600 5150 5600
Wire Wire Line
	4100 5800 5150 5800
Wire Wire Line
	4100 6000 5150 6000
Wire Wire Line
	4100 6100 5150 6100
NoConn ~ 5150 4600
NoConn ~ 5150 4700
NoConn ~ 5150 4800
NoConn ~ 5150 5000
NoConn ~ 5150 5100
NoConn ~ 5150 5300
NoConn ~ 5150 5400
NoConn ~ 5150 5500
NoConn ~ 5150 5600
NoConn ~ 5150 5800
NoConn ~ 5150 6000
NoConn ~ 5150 6100
NoConn ~ 5150 6200
Wire Wire Line
	4100 6200 5150 6200
$Comp
L Mechanical:MountingHole H1
U 1 1 5C7C4C81
P 6800 4850
F 0 "H1" H 6900 4896 50  0000 L CNN
F 1 "MountingHole" H 6900 4805 50  0000 L CNN
F 2 "lib:MountingHole_2.7mm_M2.5_uHAT_RPi" H 6800 4850 50  0001 C CNN
F 3 "~" H 6800 4850 50  0001 C CNN
	1    6800 4850
	1    0    0    -1  
$EndComp
$Comp
L Mechanical:MountingHole H2
U 1 1 5C7C7FBC
P 6800 5050
F 0 "H2" H 6900 5096 50  0000 L CNN
F 1 "MountingHole" H 6900 5005 50  0000 L CNN
F 2 "lib:MountingHole_2.7mm_M2.5_uHAT_RPi" H 6800 5050 50  0001 C CNN
F 3 "~" H 6800 5050 50  0001 C CNN
	1    6800 5050
	1    0    0    -1  
$EndComp
$Comp
L Mechanical:MountingHole H3
U 1 1 5C7C8014
P 6800 5250
F 0 "H3" H 6900 5296 50  0000 L CNN
F 1 "MountingHole" H 6900 5205 50  0000 L CNN
F 2 "lib:MountingHole_2.7mm_M2.5_uHAT_RPi" H 6800 5250 50  0001 C CNN
F 3 "~" H 6800 5250 50  0001 C CNN
	1    6800 5250
	1    0    0    -1  
$EndComp
$Comp
L Mechanical:MountingHole H4
U 1 1 5C7C8030
P 6800 5450
F 0 "H4" H 6900 5496 50  0000 L CNN
F 1 "MountingHole" H 6900 5405 50  0000 L CNN
F 2 "lib:MountingHole_2.7mm_M2.5_uHAT_RPi" H 6800 5450 50  0001 C CNN
F 3 "~" H 6800 5450 50  0001 C CNN
	1    6800 5450
	1    0    0    -1  
$EndComp
$Sheet
S 3150 2400 1300 950 
U 60B8E21A
F0 "Sheet60B8E219" 50
F1 "Voltage Regulator.sch" 50
F2 "Gnd" O L 3150 2600 50 
F3 "5Vout" O R 4450 3000 50 
F4 "3.3Vout" O L 3150 3000 50 
F5 "9Vout" O R 4450 2600 50 
$EndSheet
Wire Wire Line
	3150 2600 1950 2600
Wire Wire Line
	1950 2600 1950 5500
Wire Wire Line
	1950 5500 3400 5500
$Comp
L power:+5V #PWR?
U 1 1 60BC94C3
P 4450 3000
F 0 "#PWR?" H 4450 2850 50  0001 C CNN
F 1 "+5V" H 4465 3173 50  0000 C CNN
F 2 "" H 4450 3000 50  0001 C CNN
F 3 "" H 4450 3000 50  0001 C CNN
	1    4450 3000
	0    1    1    0   
$EndComp
$Comp
L power:+3.3V #PWR?
U 1 1 60BCB739
P 3150 3000
F 0 "#PWR?" H 3150 2850 50  0001 C CNN
F 1 "+3.3V" H 3165 3173 50  0000 C CNN
F 2 "" H 3150 3000 50  0001 C CNN
F 3 "" H 3150 3000 50  0001 C CNN
	1    3150 3000
	0    -1   -1   0   
$EndComp
$EndSCHEMATC
