EESchema Schematic File Version 4
EELAYER 30 0
EELAYER END
$Descr A4 11693 8268
encoding utf-8
Sheet 3 4
Title ""
Date ""
Rev ""
Comp ""
Comment1 ""
Comment2 ""
Comment3 ""
Comment4 ""
$EndDescr
$Comp
L Device:R R10
U 1 1 60B9A674
P 8000 3700
F 0 "R10" V 7793 3700 50  0000 C CNN
F 1 "2k" V 7884 3700 50  0000 C CNN
F 2 "Resistor_SMD:R_0201_0603Metric" V 7930 3700 50  0001 C CNN
F 3 "~" H 8000 3700 50  0001 C CNN
	1    8000 3700
	0    1    1    0   
$EndComp
$Comp
L Device:R R9
U 1 1 60B9B201
P 7550 3950
F 0 "R9" H 7620 3996 50  0000 L CNN
F 1 "6.2k" H 7620 3905 50  0000 L CNN
F 2 "Resistor_SMD:R_0201_0603Metric" V 7480 3950 50  0001 C CNN
F 3 "~" H 7550 3950 50  0001 C CNN
	1    7550 3950
	1    0    0    -1  
$EndComp
$Comp
L pspice:INDUCTOR L1
U 1 1 60B9BDC4
P 8550 3600
F 0 "L1" H 8550 3815 50  0000 C CNN
F 1 "100uH" H 8550 3724 50  0000 C CNN
F 2 "Inductor_SMD:L_6.3x6.3_H3" H 8550 3600 50  0001 C CNN
F 3 "~" H 8550 3600 50  0001 C CNN
	1    8550 3600
	1    0    0    -1  
$EndComp
$Comp
L Diode:1N5819 D2
U 1 1 60B9CE99
P 7700 3450
F 0 "D2" H 7700 3234 50  0000 C CNN
F 1 "1N5819" H 7700 3325 50  0000 C CNN
F 2 "Diode_THT:D_DO-41_SOD81_P7.62mm_Horizontal" H 7700 3275 50  0001 C CNN
F 3 "http://www.vishay.com/docs/88525/1n5817.pdf" H 7700 3450 50  0001 C CNN
	1    7700 3450
	1    0    0    -1  
$EndComp
$Comp
L Device:CP CT1
U 1 1 60B9F675
P 5850 3600
F 0 "CT1" V 5595 3600 50  0000 C CNN
F 1 "470pF" V 5686 3600 50  0000 C CNN
F 2 "Capacitor_SMD:CP_Elec_3x5.4" H 5888 3450 50  0001 C CNN
F 3 "~" H 5850 3600 50  0001 C CNN
	1    5850 3600
	0    1    1    0   
$EndComp
$Comp
L Device:R RSC1
U 1 1 60BA1D0F
P 5000 2850
F 0 "RSC1" V 4793 2850 50  0000 C CNN
F 1 "0.26" V 4884 2850 50  0000 C CNN
F 2 "Resistor_SMD:R_0201_0603Metric" V 4930 2850 50  0001 C CNN
F 3 "~" H 5000 2850 50  0001 C CNN
	1    5000 2850
	-1   0    0    1   
$EndComp
$Comp
L Device:CP Cin1
U 1 1 60BA5161
P 3900 2600
F 0 "Cin1" H 3782 2554 50  0000 R CNN
F 1 "100uF" H 3782 2645 50  0000 R CNN
F 2 "Capacitor_SMD:CP_Elec_3x5.4" H 3938 2450 50  0001 C CNN
F 3 "~" H 3900 2600 50  0001 C CNN
	1    3900 2600
	-1   0    0    1   
$EndComp
$Comp
L Device:CP Cout1
U 1 1 60BA7761
P 5900 2450
F 0 "Cout1" V 5645 2450 50  0000 C CNN
F 1 "470uF" V 5736 2450 50  0000 C CNN
F 2 "Capacitor_SMD:CP_Elec_3x5.4" H 5938 2300 50  0001 C CNN
F 3 "~" H 5900 2450 50  0001 C CNN
	1    5900 2450
	0    1    1    0   
$EndComp
Text HLabel 10500 2450 2    50   Output ~ 0
5Vout
$Comp
L Device:R R13
U 1 1 60BAB9C9
P 9600 2950
F 0 "R13" H 9670 2996 50  0000 L CNN
F 1 "6600" H 9670 2905 50  0000 L CNN
F 2 "Resistor_SMD:R_0201_0603Metric" V 9530 2950 50  0001 C CNN
F 3 "~" H 9600 2950 50  0001 C CNN
	1    9600 2950
	1    0    0    -1  
$EndComp
$Comp
L Device:R R14
U 1 1 60BABF40
P 9600 3650
F 0 "R14" H 9670 3696 50  0000 L CNN
F 1 "10k" H 9670 3605 50  0000 L CNN
F 2 "Resistor_SMD:R_0201_0603Metric" V 9530 3650 50  0001 C CNN
F 3 "~" H 9600 3650 50  0001 C CNN
	1    9600 3650
	1    0    0    -1  
$EndComp
Wire Wire Line
	9600 3800 9600 3950
$Comp
L Device:R R11
U 1 1 60BAE860
P 9200 2950
F 0 "R11" H 9270 2996 50  0000 L CNN
F 1 "18k" H 9270 2905 50  0000 L CNN
F 2 "Resistor_SMD:R_0201_0603Metric" V 9130 2950 50  0001 C CNN
F 3 "~" H 9200 2950 50  0001 C CNN
	1    9200 2950
	1    0    0    -1  
$EndComp
$Comp
L Device:R R12
U 1 1 60BAEE84
P 9200 3600
F 0 "R12" H 9270 3646 50  0000 L CNN
F 1 "10k" H 9270 3555 50  0000 L CNN
F 2 "Resistor_SMD:R_0201_0603Metric" V 9130 3600 50  0001 C CNN
F 3 "~" H 9200 3600 50  0001 C CNN
	1    9200 3600
	1    0    0    -1  
$EndComp
Wire Wire Line
	9200 3750 9200 3950
Wire Wire Line
	9200 3950 9600 3950
Wire Wire Line
	10500 3400 10500 3450
Text HLabel 10500 3200 2    50   Output ~ 0
3.3Vout
Text HLabel 10500 3450 2    50   Output ~ 0
9Vout
$Comp
L Regulator_Switching:MC34063AP U3
U 1 1 60BA1804
P 6400 3400
F 0 "U3" H 6400 3867 50  0000 C CNN
F 1 "MC34063AP" H 6400 3776 50  0000 C CNN
F 2 "Package_DIP:DIP-8_W7.62mm" H 6450 2950 50  0001 L CNN
F 3 "http://www.onsemi.com/pub_link/Collateral/MC34063A-D.PDF" H 6900 3300 50  0001 C CNN
	1    6400 3400
	1    0    0    -1  
$EndComp
Wire Wire Line
	9200 2800 9200 2450
Wire Wire Line
	9200 3400 9200 3450
Wire Wire Line
	9200 3100 9200 3400
Connection ~ 9200 3400
Wire Wire Line
	9200 3400 10500 3400
Wire Wire Line
	9600 3200 9600 3500
Wire Wire Line
	9600 3100 9600 3200
Connection ~ 9600 3200
Wire Wire Line
	9600 3200 10500 3200
Wire Wire Line
	6800 3200 6900 3200
Wire Wire Line
	6800 3300 6900 3300
Wire Wire Line
	6900 3300 6900 3200
Connection ~ 6900 3200
Wire Wire Line
	6800 3400 6900 3400
Wire Wire Line
	6900 3400 6900 3300
Connection ~ 6900 3300
Wire Wire Line
	6400 3900 6400 4250
Wire Wire Line
	7550 3800 7550 3700
Wire Wire Line
	7550 4100 7550 4250
Wire Wire Line
	7550 4250 6400 4250
Connection ~ 6400 4250
Wire Wire Line
	8800 3700 8800 3600
Wire Wire Line
	6800 3600 7550 3600
Wire Wire Line
	4450 3200 5000 3200
Wire Wire Line
	5000 3000 5000 3200
Connection ~ 5000 3200
Wire Wire Line
	5000 3200 5600 3200
Wire Wire Line
	5000 2700 6900 2700
Wire Wire Line
	6900 2700 6900 3200
Wire Wire Line
	4850 3600 5700 3600
Wire Wire Line
	5600 3200 5600 3400
Wire Wire Line
	5600 3400 3900 3400
Wire Wire Line
	3900 2750 3900 3400
Wire Wire Line
	3400 2450 3900 2450
Wire Wire Line
	3900 2450 5750 2450
Connection ~ 3900 2450
Wire Wire Line
	6050 2450 8800 2450
Wire Wire Line
	8800 3600 8800 2450
Connection ~ 8800 3600
Connection ~ 8800 2450
Wire Wire Line
	8800 2450 9200 2450
Connection ~ 9200 2450
Wire Wire Line
	9200 2450 9600 2450
Wire Wire Line
	9600 2800 9600 2450
Connection ~ 9600 2450
Wire Wire Line
	9600 2450 10500 2450
Wire Wire Line
	7550 3450 7550 3600
Connection ~ 7550 3600
Wire Wire Line
	7550 3600 8300 3600
Wire Wire Line
	7850 3450 8050 3450
Wire Wire Line
	6800 3700 7550 3700
Wire Wire Line
	7550 3700 7850 3700
Connection ~ 7550 3700
Wire Wire Line
	8150 3700 8800 3700
Text GLabel 3400 2450 0    50   Input ~ 0
GND
Text GLabel 4850 3600 0    50   Input ~ 0
GND
Text GLabel 6400 4400 3    50   Input ~ 0
GND
Text GLabel 9600 4100 3    50   Input ~ 0
GND
Text GLabel 8050 3450 2    50   Input ~ 0
GND
Wire Wire Line
	6400 4250 6400 4400
Connection ~ 9600 3950
Wire Wire Line
	9600 3950 9600 4100
Text HLabel 4450 3200 0    50   Input ~ 0
12Vcc
Wire Wire Line
	5600 3200 6000 3200
Connection ~ 5600 3200
$EndSCHEMATC
