EESchema Schematic File Version 4
EELAYER 30 0
EELAYER END
$Descr A4 11693 8268
encoding utf-8
Sheet 3 4
Title "Status LEDs"
Date "2021-06-03"
Rev "01"
Comp ""
Comment1 "This Schematic is licensed under MIT Open Source License."
Comment2 ""
Comment3 ""
Comment4 ""
$EndDescr
$Comp
L Device:R R3
U 1 1 60B904F5
P 2500 4700
F 0 "R3" H 2570 4746 50  0000 L CNN
F 1 "100k" H 2570 4655 50  0000 L CNN
F 2 "Resistor_SMD:R_0201_0603Metric" V 2430 4700 50  0001 C CNN
F 3 "~" H 2500 4700 50  0001 C CNN
	1    2500 4700
	1    0    0    -1  
$EndComp
$Comp
L Device:R R6
U 1 1 60B918F4
P 4000 3250
F 0 "R6" H 4070 3296 50  0000 L CNN
F 1 "80" H 4070 3205 50  0000 L CNN
F 2 "Resistor_SMD:R_0201_0603Metric" V 3930 3250 50  0001 C CNN
F 3 "~" H 4000 3250 50  0001 C CNN
	1    4000 3250
	1    0    0    -1  
$EndComp
$Comp
L Device:R R8
U 1 1 60B91FD9
P 6000 3250
F 0 "R8" H 6070 3296 50  0000 L CNN
F 1 "80" H 6070 3205 50  0000 L CNN
F 2 "Resistor_SMD:R_0201_0603Metric" V 5930 3250 50  0001 C CNN
F 3 "~" H 6000 3250 50  0001 C CNN
	1    6000 3250
	1    0    0    -1  
$EndComp
$Comp
L Device:R R4
U 1 1 60B92901
P 3200 4000
F 0 "R4" V 2993 4000 50  0000 C CNN
F 1 "750" V 3084 4000 50  0000 C CNN
F 2 "Resistor_SMD:R_0201_0603Metric" V 3130 4000 50  0001 C CNN
F 3 "~" H 3200 4000 50  0001 C CNN
	1    3200 4000
	0    1    1    0   
$EndComp
$Comp
L Device:R R7
U 1 1 60B9381E
P 5100 4000
F 0 "R7" V 4893 4000 50  0000 C CNN
F 1 "7.5k" V 4984 4000 50  0000 C CNN
F 2 "Resistor_SMD:R_0201_0603Metric" V 5030 4000 50  0001 C CNN
F 3 "~" H 5100 4000 50  0001 C CNN
	1    5100 4000
	0    1    1    0   
$EndComp
$Comp
L Transistor_BJT:2N2219 Q1
U 1 1 60B95679
P 3900 4000
F 0 "Q1" H 4090 4046 50  0000 L CNN
F 1 "2N5550" H 4090 3955 50  0000 L CNN
F 2 "Package_TO_SOT_THT:TO-39-3" H 4100 3925 50  0001 L CIN
F 3 "http://www.onsemi.com/pub_link/Collateral/2N2219-D.PDF" H 3900 4000 50  0001 L CNN
	1    3900 4000
	1    0    0    -1  
$EndComp
$Comp
L Transistor_BJT:2N2219 Q2
U 1 1 60B96671
P 5900 4000
F 0 "Q2" H 6090 4046 50  0000 L CNN
F 1 "2N5550" H 6090 3955 50  0000 L CNN
F 2 "Package_TO_SOT_THT:TO-39-3" H 6100 3925 50  0001 L CIN
F 3 "http://www.onsemi.com/pub_link/Collateral/2N2219-D.PDF" H 5900 4000 50  0001 L CNN
	1    5900 4000
	1    0    0    -1  
$EndComp
$Comp
L Device:LED LED_Green1
U 1 1 60B985EF
P 4000 2650
F 0 "LED_Green1" V 4039 2532 50  0000 R CNN
F 1 "QTLP690C" V 3948 2532 50  0000 R CNN
F 2 "LED_SMD:LED_0201_0603Metric" H 4000 2650 50  0001 C CNN
F 3 "~" H 4000 2650 50  0001 C CNN
	1    4000 2650
	0    -1   -1   0   
$EndComp
$Comp
L Device:LED LED_Red1
U 1 1 60B995D7
P 6000 2650
F 0 "LED_Red1" V 6039 2532 50  0000 R CNN
F 1 "QTLP690C" V 5948 2532 50  0000 R CNN
F 2 "LED_SMD:LED_0201_0603Metric" H 6000 2650 50  0001 C CNN
F 3 "~" H 6000 2650 50  0001 C CNN
	1    6000 2650
	0    -1   -1   0   
$EndComp
$Comp
L Diode:BZX84Cxx D1
U 1 1 60B9A897
P 2500 3300
F 0 "D1" V 2454 3380 50  0000 L CNN
F 1 "BZX84B6V2L" V 2545 3380 50  0000 L CNN
F 2 "Diode_SMD:D_SOT-23_ANK" H 2500 3125 50  0001 C CNN
F 3 "https://diotec.com/tl_files/diotec/files/pdf/datasheets/bzx84c2v4.pdf" H 2500 3300 50  0001 C CNN
	1    2500 3300
	0    1    1    0   
$EndComp
Wire Wire Line
	2500 5000 3500 5000
Wire Wire Line
	4000 5000 4000 4200
Wire Wire Line
	2500 4850 2500 5000
Wire Wire Line
	2500 3450 2500 4000
Wire Wire Line
	3700 4000 3350 4000
Wire Wire Line
	3050 4000 2500 4000
Connection ~ 2500 4000
Wire Wire Line
	2500 4000 2500 4550
Wire Wire Line
	4000 3800 4000 3700
Wire Wire Line
	4000 2000 3500 2000
Wire Wire Line
	2500 2000 2500 3150
Wire Wire Line
	4000 3100 4000 2800
Wire Wire Line
	4000 2500 4000 2000
Wire Wire Line
	4000 2000 6000 2000
Wire Wire Line
	6000 2000 6000 2500
Wire Wire Line
	6000 3400 6000 3800
Wire Wire Line
	6000 2800 6000 3100
Connection ~ 4000 2000
Wire Wire Line
	6000 4200 6000 5000
Wire Wire Line
	6000 5000 4000 5000
Connection ~ 4000 5000
Wire Wire Line
	4950 4000 4500 4000
Wire Wire Line
	4500 4000 4500 3700
Wire Wire Line
	4500 3700 4000 3700
Connection ~ 4000 3700
Wire Wire Line
	4000 3700 4000 3400
Wire Wire Line
	5250 4000 5700 4000
Wire Wire Line
	3500 1700 3500 2000
Connection ~ 3500 2000
Wire Wire Line
	3500 2000 2500 2000
Text HLabel 3500 1700 0    50   Input ~ 0
9Vcc
Wire Wire Line
	3500 5250 3500 5000
Connection ~ 3500 5000
Wire Wire Line
	3500 5000 4000 5000
$Comp
L Device:R R5
U 1 1 60BACA52
P 3550 6000
F 0 "R5" V 3343 6000 50  0000 C CNN
F 1 "25" V 3434 6000 50  0000 C CNN
F 2 "Resistor_SMD:R_0201_0603Metric" V 3480 6000 50  0001 C CNN
F 3 "~" H 3550 6000 50  0001 C CNN
	1    3550 6000
	0    1    1    0   
$EndComp
$Comp
L Device:LED LED_White1
U 1 1 60BAD59E
P 4550 6000
F 0 "LED_White1" H 4543 5745 50  0000 C CNN
F 1 "QTLP690C" H 4543 5836 50  0000 C CNN
F 2 "LED_SMD:LED_0201_0603Metric" H 4550 6000 50  0001 C CNN
F 3 "~" H 4550 6000 50  0001 C CNN
	1    4550 6000
	-1   0    0    1   
$EndComp
Wire Wire Line
	2800 6000 3400 6000
Wire Wire Line
	3700 6000 4400 6000
Wire Wire Line
	5300 6000 4700 6000
Text HLabel 2800 6000 0    50   Input ~ 0
5Vcc
Text GLabel 5300 6000 2    50   Input ~ 0
GND
Text GLabel 3500 5250 3    50   Input ~ 0
GND
$EndSCHEMATC
